<?xml version="1.0" encoding="UTF-8" standalone="no"?>
<svg
   width="252.98047"
   viewBox="0 0 252.98047 252.97851"
   version="1.1"
   height="252.97852"
   id="svg14"
   sodipodi:docname="plasmalogo.svg"
   inkscape:version="1.2 (dc2aedaf03, 2022-05-15)"
   xml:space="preserve"
   xmlns:inkscape="http://www.inkscape.org/namespaces/inkscape"
   xmlns:sodipodi="http://sodipodi.sourceforge.net/DTD/sodipodi-0.dtd"
   xmlns="http://www.w3.org/2000/svg"
   xmlns:svg="http://www.w3.org/2000/svg"><defs
     id="defs5" /><sodipodi:namedview
     id="namedview8"
     pagecolor="#000000"
     bordercolor="#666666"
     borderopacity="1.0"
     inkscape:pageshadow="2"
     inkscape:pageopacity="0"
     inkscape:pagecheckerboard="0"
     showgrid="false"
     inkscape:zoom="2.6640626"
     inkscape:cx="44.856304"
     inkscape:cy="163.8475"
     inkscape:window-width="3840"
     inkscape:window-height="2129"
     inkscape:window-x="0"
     inkscape:window-y="0"
     inkscape:window-maximized="1"
     inkscape:current-layer="svg14"
     scale-x="1"
     inkscape:showpageshadow="2"
     inkscape:deskcolor="#000000" /><path
     d="M 126.29102,1.0872613 C 115.12048,28.471744 108.33738,46.408515 95.904325,72.980203 103.52649,81.061102 112.89735,90.439807 128.09854,101.06927 111.75638,94.344986 100.61721,87.612865 92.289288,80.606283 76.374505,113.816 51.422132,161.10552 0.82339582,252.02247 40.580948,229.06975 71.406773,214.9076 100.13102,209.50464 c -1.231154,-5.29708 -1.885943,-11.0529 -1.838894,-17.03221 l 0.0314,-1.25468 c 0.63126,-25.47777 13.887704,-45.07032 29.590764,-43.74114 15.69912,1.32916 27.92437,23.07035 27.29312,48.55204 -0.12145,4.79913 -0.67831,9.41005 -1.62323,13.69164 28.41448,5.5598 58.94623,19.65528 98.17448,42.30218 -7.73587,-14.24056 -14.66402,-27.07354 -21.25892,-39.30272 -10.38636,-8.04953 -21.21577,-18.52215 -43.31376,-29.86519 15.18942,3.94829 26.07375,8.51219 34.55063,13.60146 C 154.69767,71.635348 149.27903,55.038334 126.29102,1.0872613 v -3.53e-4 z"
     id="path9"
     style="display:none;fill:#ff3163;fill-opacity:0.992157;fill-rule:nonzero;stroke:none;stroke-width:3.92086;stroke-opacity:1" /><g
     id="g168"
     transform="matrix(0.95015476,0,0,0.95015476,-0.35473918,-0.3564907)"><path
       id="voice"
       style="display:inline;fill:#fd3062;fill-opacity:1;fill-rule:nonzero"
       d="M 133.49722,0.37519225 C 60.006055,0.37519225 0.42548879,59.931784 0.37334884,133.41273 V 236.43254 C 0.4128988,253.11686 13.944997,266.62499 30.6398,266.62499 h 102.91292 c 73.49968,-0.0288 133.07249,-59.61454 133.07249,-133.11976 0,-73.524775 -59.60376,-133.13003775 -133.12799,-133.13003775 z M 172.58419,31.932551 c 5.23494,0 8.95742,0.591564 13.80326,1.85825 7.06595,1.849116 12.84131,7.642315 12.84331,14.380881 0,8.145114 -5.91298,14.070488 -14.75089,14.070488 -4.20637,0 -5.73343,-0.807846 -11.89568,-0.807846 -18.19157,0 -32.94792,14.734816 -32.97982,32.92638 v 28.656926 c 0,2.56775 2.08797,4.64768 4.66001,4.64768 l 21.66382,0.004 c 8.07212,0 14.59467,6.43877 14.59467,14.533 0.004,8.14454 -6.58957,14.5556 -14.74883,14.5556 h -26.16762 v 33.11755 c 0,34.50396 -27.97436,62.47954 -62.479539,62.47954 -5.234928,0 -8.957411,-0.59156 -13.803261,-1.85825 -7.065936,-1.8491 -12.838847,-7.6423 -12.841247,-14.38088 0,-8.14511 5.910919,-14.06843 14.748831,-14.06843 4.206362,0 5.733441,0.80579 11.895677,0.80579 18.191574,0 32.947929,-14.73482 32.979829,-32.92638 v -28.65693 c 0,-2.56773 -2.08798,-4.64768 -4.66002,-4.64768 l -21.66382,-0.004 c -8.072104,0 -14.594662,-6.43878 -14.594662,-14.53299 -0.0043,-8.14454 6.589567,-14.55561 14.748831,-14.55561 H 110.10465 V 94.412094 c 0,-34.503952 27.97438,-62.479543 62.47954,-62.479543 z" /><path
       id="in"
       style="color:#000000;fill:#a94c64;-inkscape-stroke:none"
       d="m 172.7322,31.907884 c -35.18326,-0.835739 -64.33403,29.62153 -62.62755,64.494017 v -1.989807 c 0,-34.503952 27.97438,-62.479543 62.47954,-62.479543 5.23494,0 8.95742,0.591564 13.80326,1.85825 7.06595,1.849116 12.84131,7.642315 12.84331,14.380881 0,8.145114 -5.91298,14.070488 -14.75089,14.070488 -1.96368,0 -3.35021,-0.180214 -4.89024,-0.36795 12.21771,2.828187 23.19157,13.357788 25.52216,25.571492 l 0.0576,0.302171 0.0699,0.29806 c 3.90802,16.641807 -10.04253,36.733537 -26.96723,39.041747 -11.0482,0.6686 -22.65297,0.60095 -34.47012,0.53034 0.15427,0.0154 0.30419,0.0473 0.4625,0.0473 l 21.66382,0.004 c 8.07212,0 14.59467,6.43877 14.59467,14.533 0.004,8.14454 -6.58957,14.5556 -14.74883,14.5556 h -26.16762 v 0.072 c 13.33622,0.0927 26.97831,0.28746 41.18778,-0.61462 l 0.45429,-0.0308 0.45017,-0.0555 c 35.35351,-4.46397 60.01176,-39.77003 52.02483,-74.49444 -5.67002,-28.816352 -31.5643,-50.011565 -60.99129,-49.726686 z m -17.6246,34.57496 c -4.99264,3.131252 -9.08331,7.546747 -11.80523,12.804246 2.83749,-5.081782 6.9727,-9.554709 11.80523,-12.804246 z M 89.855071,127.39192 c -6.858619,0.053 -13.826392,0.23106 -20.936145,0.68245 l -0.454285,0.0267 -0.450173,0.0596 c -35.305367,4.45787 -59.9402121,39.67031 -52.051554,74.35055 6.430802,34.8409 42.712595,57.5065 76.858368,47.87049 0.879723,-0.21408 1.720157,-0.50725 2.581816,-0.75851 -5.782643,1.76703 -11.915361,2.73187 -18.276217,2.73187 -5.234928,0 -8.957411,-0.59156 -13.803261,-1.85825 -7.065936,-1.8491 -12.838847,-7.6423 -12.841247,-14.38088 0,-8.14511 5.910919,-14.06843 14.748831,-14.06843 2.588624,0 4.250179,0.29561 6.514153,0.53034 -12.817932,-2.6152 -24.883913,-13.0194 -27.113182,-25.55505 l -0.06989,-0.39467 -0.09045,-0.3885 c -3.908253,-16.64202 10.044166,-36.73145 26.969291,-39.0397 8.373208,-0.50676 16.963101,-0.57842 25.768829,-0.53856 2.848725,0.0129 5.808605,0.0115 8.746525,0.0123 -0.16952,-0.0186 -0.33531,-0.0514 -0.50979,-0.0514 l -21.663824,-0.004 c -8.072104,0 -14.594662,-6.43878 -14.594662,-14.53299 -0.0043,-8.14454 6.589567,-14.55561 14.748831,-14.55561 h 26.167615 v -0.0719 c -6.66262,-0.0463 -13.401391,-0.11872 -20.249583,-0.0658 z m 49.751349,58.88638 v 3.59727 c 0,27.97667 -18.39507,51.65418 -43.746982,59.61406 27.396752,-8.22526 45.350462,-34.96702 43.746982,-63.21133 z m -33.22444,18.77572 c -0.17428,0.32605 -0.33817,0.65753 -0.52211,0.97846 0.18148,-0.32198 0.35125,-0.64989 0.52211,-0.97846 z m -1.22718,2.1337 c -0.30948,0.49755 -0.61544,0.99768 -0.94763,1.48002 0.33439,-0.48087 0.63865,-0.98097 0.94763,-1.48002 z" /></g></svg>
